%YAML 1.1
%TAG !u! tag:unity3d.com,2011:
--- !u!1 &2250339280742686735
GameObject:
  m_ObjectHideFlags: 0
  m_CorrespondingSourceObject: {fileID: 0}
  m_PrefabInstance: {fileID: 0}
  m_PrefabAsset: {fileID: 0}
  serializedVersion: 6
  m_Component:
  - component: {fileID: 7999596406782778537}
  - component: {fileID: 1030007935550027713}
  - component: {fileID: 5491373942837854887}
  - component: {fileID: 7504400442051477590}
  m_Layer: 0
  m_Name: Grass_4
  m_TagString: Grass
  m_Icon: {fileID: 0}
  m_NavMeshLayer: 0
  m_StaticEditorFlags: 0
  m_IsActive: 1
--- !u!4 &7999596406782778537
Transform:
  m_ObjectHideFlags: 0
  m_CorrespondingSourceObject: {fileID: 0}
  m_PrefabInstance: {fileID: 0}
  m_PrefabAsset: {fileID: 0}
  m_GameObject: {fileID: 2250339280742686735}
  m_LocalRotation: {x: 0, y: 0, z: 0, w: 1}
  m_LocalPosition: {x: 0, y: 0, z: 0}
  m_LocalScale: {x: 1, y: 1, z: 50}
  m_Children:
  - {fileID: 2463070051992698178}
  - {fileID: 4016129755776093890}
  - {fileID: 6958756292675657238}
  - {fileID: 8183939396632862761}
  - {fileID: 3717598077587992272}
  - {fileID: 3825459376771919736}
  - {fileID: 7139090406493870985}
  - {fileID: 3429587603281173992}
  m_Father: {fileID: 0}
  m_RootOrder: 0
  m_LocalEulerAnglesHint: {x: 0, y: 0, z: 0}
--- !u!33 &1030007935550027713
MeshFilter:
  m_ObjectHideFlags: 0
  m_CorrespondingSourceObject: {fileID: 0}
  m_PrefabInstance: {fileID: 0}
  m_PrefabAsset: {fileID: 0}
  m_GameObject: {fileID: 2250339280742686735}
  m_Mesh: {fileID: 10202, guid: 0000000000000000e000000000000000, type: 0}
--- !u!23 &5491373942837854887
MeshRenderer:
  m_ObjectHideFlags: 0
  m_CorrespondingSourceObject: {fileID: 0}
  m_PrefabInstance: {fileID: 0}
  m_PrefabAsset: {fileID: 0}
  m_GameObject: {fileID: 2250339280742686735}
  m_Enabled: 1
  m_CastShadows: 1
  m_ReceiveShadows: 1
  m_DynamicOccludee: 1
  m_MotionVectors: 1
  m_LightProbeUsage: 1
  m_ReflectionProbeUsage: 1
  m_RayTracingMode: 2
  m_RenderingLayerMask: 1
  m_RendererPriority: 0
  m_Materials:
  - {fileID: 2100000, guid: 4de98f1b8c342e643982c5ac622bcc0c, type: 2}
  m_StaticBatchInfo:
    firstSubMesh: 0
    subMeshCount: 0
  m_StaticBatchRoot: {fileID: 0}
  m_ProbeAnchor: {fileID: 0}
  m_LightProbeVolumeOverride: {fileID: 0}
  m_ScaleInLightmap: 1
  m_ReceiveGI: 1
  m_PreserveUVs: 0
  m_IgnoreNormalsForChartDetection: 0
  m_ImportantGI: 0
  m_StitchLightmapSeams: 1
  m_SelectedEditorRenderState: 3
  m_MinimumChartSize: 4
  m_AutoUVMaxDistance: 0.5
  m_AutoUVMaxAngle: 89
  m_LightmapParameters: {fileID: 0}
  m_SortingLayerID: 0
  m_SortingLayer: 0
  m_SortingOrder: 0
--- !u!65 &7504400442051477590
BoxCollider:
  m_ObjectHideFlags: 0
  m_CorrespondingSourceObject: {fileID: 0}
  m_PrefabInstance: {fileID: 0}
  m_PrefabAsset: {fileID: 0}
  m_GameObject: {fileID: 2250339280742686735}
  m_Material: {fileID: 0}
  m_IsTrigger: 0
  m_Enabled: 1
  serializedVersion: 2
  m_Size: {x: 1, y: 1, z: 1}
  m_Center: {x: 0, y: 0, z: 0}
--- !u!65 &5431558042687715032
BoxCollider:
  m_ObjectHideFlags: 0
  m_CorrespondingSourceObject: {fileID: 0}
  m_PrefabInstance: {fileID: 0}
  m_PrefabAsset: {fileID: 0}
  m_GameObject: {fileID: 2463070051992527202}
  m_Material: {fileID: 0}
  m_IsTrigger: 0
  m_Enabled: 1
  serializedVersion: 2
  m_Size: {x: 17.000002, y: 26.000002, z: 18}
  m_Center: {x: -5.0000005, y: 13.000001, z: 0.5}
--- !u!65 &6069935852604374819
BoxCollider:
  m_ObjectHideFlags: 0
  m_CorrespondingSourceObject: {fileID: 0}
  m_PrefabInstance: {fileID: 0}
  m_PrefabAsset: {fileID: 0}
  m_GameObject: {fileID: 3717598077587632880}
  m_Material: {fileID: 0}
  m_IsTrigger: 0
  m_Enabled: 1
  serializedVersion: 2
  m_Size: {x: 1.0901597, y: 1.6092831, z: 1.0901594}
  m_Center: {x: 0.00000032782555, y: 0.80464154, z: -0.00000008940697}
--- !u!65 &2489806504079328177
BoxCollider:
  m_ObjectHideFlags: 0
  m_CorrespondingSourceObject: {fileID: 0}
  m_PrefabInstance: {fileID: 0}
  m_PrefabAsset: {fileID: 0}
  m_GameObject: {fileID: 3825459376771756888}
  m_Material: {fileID: 0}
  m_IsTrigger: 0
  m_Enabled: 1
  serializedVersion: 2
  m_Size: {x: 17.000002, y: 26.000002, z: 18}
  m_Center: {x: -5.0000005, y: 13.000001, z: 0.5}
--- !u!65 &98083171863391023
BoxCollider:
  m_ObjectHideFlags: 0
  m_CorrespondingSourceObject: {fileID: 0}
  m_PrefabInstance: {fileID: 0}
  m_PrefabAsset: {fileID: 0}
  m_GameObject: {fileID: 4016129755776455394}
  m_Material: {fileID: 0}
  m_IsTrigger: 0
  m_Enabled: 1
  serializedVersion: 2
  m_Size: {x: 0.6229481, y: 1.1939843, z: 0.62294817}
  m_Center: {x: 0.00000014901161, y: 0.596992, z: -0.00000022351742}
--- !u!65 &3524424183139319413
BoxCollider:
  m_ObjectHideFlags: 0
  m_CorrespondingSourceObject: {fileID: 0}
  m_PrefabInstance: {fileID: 0}
  m_PrefabAsset: {fileID: 0}
  m_GameObject: {fileID: 6958756292675879478}
  m_Material: {fileID: 0}
  m_IsTrigger: 0
  m_Enabled: 1
  serializedVersion: 2
  m_Size: {x: 0.6229481, y: 1.1939843, z: 0.62294817}
  m_Center: {x: 0.00000014901161, y: 0.596992, z: -0.00000022351742}
--- !u!65 &5006014844264483231
BoxCollider:
  m_ObjectHideFlags: 0
  m_CorrespondingSourceObject: {fileID: 0}
  m_PrefabInstance: {fileID: 0}
  m_PrefabAsset: {fileID: 0}
  m_GameObject: {fileID: 8183939396633361417}
  m_Material: {fileID: 0}
  m_IsTrigger: 0
  m_Enabled: 1
  serializedVersion: 2
  m_Size: {x: 1.0901597, y: 1.6092831, z: 1.0901594}
  m_Center: {x: 0.00000032782555, y: 0.80464154, z: -0.00000008940697}
--- !u!1001 &718814711141994564
PrefabInstance:
  m_ObjectHideFlags: 0
  serializedVersion: 2
  m_Modification:
    m_TransformParent: {fileID: 7999596406782778537}
    m_Modifications:
    - target: {fileID: 3411054808035631693, guid: f37b0c05965f0dc48b6bcc40ceeb0687,
        type: 3}
      propertyPath: m_Name
      value: Coin
      objectReference: {fileID: 0}
    - target: {fileID: 7704140320757697485, guid: f37b0c05965f0dc48b6bcc40ceeb0687,
        type: 3}
      propertyPath: m_LocalPosition.x
      value: 0
      objectReference: {fileID: 0}
    - target: {fileID: 7704140320757697485, guid: f37b0c05965f0dc48b6bcc40ceeb0687,
        type: 3}
      propertyPath: m_LocalPosition.y
      value: 0.07513804
      objectReference: {fileID: 0}
    - target: {fileID: 7704140320757697485, guid: f37b0c05965f0dc48b6bcc40ceeb0687,
        type: 3}
      propertyPath: m_LocalPosition.z
      value: 0.247
      objectReference: {fileID: 0}
    - target: {fileID: 7704140320757697485, guid: f37b0c05965f0dc48b6bcc40ceeb0687,
        type: 3}
      propertyPath: m_LocalRotation.x
      value: -0
      objectReference: {fileID: 0}
    - target: {fileID: 7704140320757697485, guid: f37b0c05965f0dc48b6bcc40ceeb0687,
        type: 3}
      propertyPath: m_LocalRotation.y
      value: -0
      objectReference: {fileID: 0}
    - target: {fileID: 7704140320757697485, guid: f37b0c05965f0dc48b6bcc40ceeb0687,
        type: 3}
      propertyPath: m_LocalRotation.z
      value: -0
      objectReference: {fileID: 0}
    - target: {fileID: 7704140320757697485, guid: f37b0c05965f0dc48b6bcc40ceeb0687,
        type: 3}
      propertyPath: m_LocalRotation.w
      value: 1
      objectReference: {fileID: 0}
    - target: {fileID: 7704140320757697485, guid: f37b0c05965f0dc48b6bcc40ceeb0687,
        type: 3}
      propertyPath: m_RootOrder
      value: 6
      objectReference: {fileID: 0}
    - target: {fileID: 7704140320757697485, guid: f37b0c05965f0dc48b6bcc40ceeb0687,
        type: 3}
      propertyPath: m_LocalEulerAnglesHint.x
      value: 0
      objectReference: {fileID: 0}
    - target: {fileID: 7704140320757697485, guid: f37b0c05965f0dc48b6bcc40ceeb0687,
        type: 3}
      propertyPath: m_LocalEulerAnglesHint.y
      value: 0
      objectReference: {fileID: 0}
    - target: {fileID: 7704140320757697485, guid: f37b0c05965f0dc48b6bcc40ceeb0687,
        type: 3}
      propertyPath: m_LocalEulerAnglesHint.z
      value: 0
      objectReference: {fileID: 0}
    - target: {fileID: 7704140320757697485, guid: f37b0c05965f0dc48b6bcc40ceeb0687,
        type: 3}
      propertyPath: m_LocalScale.z
      value: 0.017
      objectReference: {fileID: 0}
    m_RemovedComponents: []
  m_SourcePrefab: {fileID: 100100000, guid: f37b0c05965f0dc48b6bcc40ceeb0687, type: 3}
--- !u!4 &7139090406493870985 stripped
Transform:
  m_CorrespondingSourceObject: {fileID: 7704140320757697485, guid: f37b0c05965f0dc48b6bcc40ceeb0687,
    type: 3}
  m_PrefabInstance: {fileID: 718814711141994564}
  m_PrefabAsset: {fileID: 0}
--- !u!1001 &2463070051992561602
PrefabInstance:
  m_ObjectHideFlags: 0
  serializedVersion: 2
  m_Modification:
    m_TransformParent: {fileID: 7999596406782778537}
    m_Modifications:
    - target: {fileID: 100000, guid: 66a509b29a0f1ba43bb4a16ce83ee121, type: 3}
      propertyPath: m_Name
      value: FruitTree_4
      objectReference: {fileID: 0}
    - target: {fileID: 400000, guid: 66a509b29a0f1ba43bb4a16ce83ee121, type: 3}
      propertyPath: m_LocalPosition.x
      value: 0.25
      objectReference: {fileID: 0}
    - target: {fileID: 400000, guid: 66a509b29a0f1ba43bb4a16ce83ee121, type: 3}
      propertyPath: m_LocalPosition.y
      value: 0.5
      objectReference: {fileID: 0}
    - target: {fileID: 400000, guid: 66a509b29a0f1ba43bb4a16ce83ee121, type: 3}
      propertyPath: m_LocalPosition.z
      value: -0.134
      objectReference: {fileID: 0}
    - target: {fileID: 400000, guid: 66a509b29a0f1ba43bb4a16ce83ee121, type: 3}
      propertyPath: m_LocalRotation.x
      value: 0.00000008146034
      objectReference: {fileID: 0}
    - target: {fileID: 400000, guid: 66a509b29a0f1ba43bb4a16ce83ee121, type: 3}
      propertyPath: m_LocalRotation.y
      value: -0
      objectReference: {fileID: 0}
    - target: {fileID: 400000, guid: 66a509b29a0f1ba43bb4a16ce83ee121, type: 3}
      propertyPath: m_LocalRotation.z
      value: -0
      objectReference: {fileID: 0}
    - target: {fileID: 400000, guid: 66a509b29a0f1ba43bb4a16ce83ee121, type: 3}
      propertyPath: m_LocalRotation.w
      value: 1
      objectReference: {fileID: 0}
    - target: {fileID: 400000, guid: 66a509b29a0f1ba43bb4a16ce83ee121, type: 3}
      propertyPath: m_RootOrder
      value: 0
      objectReference: {fileID: 0}
    - target: {fileID: 400000, guid: 66a509b29a0f1ba43bb4a16ce83ee121, type: 3}
      propertyPath: m_LocalEulerAnglesHint.x
      value: 0
      objectReference: {fileID: 0}
    - target: {fileID: 400000, guid: 66a509b29a0f1ba43bb4a16ce83ee121, type: 3}
      propertyPath: m_LocalEulerAnglesHint.y
      value: 0
      objectReference: {fileID: 0}
    - target: {fileID: 400000, guid: 66a509b29a0f1ba43bb4a16ce83ee121, type: 3}
      propertyPath: m_LocalEulerAnglesHint.z
      value: 0
      objectReference: {fileID: 0}
    - target: {fileID: 400000, guid: 66a509b29a0f1ba43bb4a16ce83ee121, type: 3}
      propertyPath: m_LocalScale.z
      value: 0.001
      objectReference: {fileID: 0}
    - target: {fileID: 400000, guid: 66a509b29a0f1ba43bb4a16ce83ee121, type: 3}
      propertyPath: m_LocalScale.x
      value: 0.05
      objectReference: {fileID: 0}
    - target: {fileID: 400000, guid: 66a509b29a0f1ba43bb4a16ce83ee121, type: 3}
      propertyPath: m_LocalScale.y
      value: 0.05
      objectReference: {fileID: 0}
    m_RemovedComponents: []
  m_SourcePrefab: {fileID: 100100000, guid: 66a509b29a0f1ba43bb4a16ce83ee121, type: 3}
--- !u!1 &2463070051992527202 stripped
GameObject:
  m_CorrespondingSourceObject: {fileID: 100000, guid: 66a509b29a0f1ba43bb4a16ce83ee121,
    type: 3}
  m_PrefabInstance: {fileID: 2463070051992561602}
  m_PrefabAsset: {fileID: 0}
--- !u!4 &2463070051992698178 stripped
Transform:
  m_CorrespondingSourceObject: {fileID: 400000, guid: 66a509b29a0f1ba43bb4a16ce83ee121,
    type: 3}
  m_PrefabInstance: {fileID: 2463070051992561602}
  m_PrefabAsset: {fileID: 0}
--- !u!1001 &3717598077587600464
PrefabInstance:
  m_ObjectHideFlags: 0
  serializedVersion: 2
  m_Modification:
    m_TransformParent: {fileID: 7999596406782778537}
    m_Modifications:
    - target: {fileID: 100000, guid: 9d811b3b2f2dc534e8a0d0f95004d72b, type: 3}
      propertyPath: m_Name
      value: Tree_3 (1)
      objectReference: {fileID: 0}
    - target: {fileID: 400000, guid: 9d811b3b2f2dc534e8a0d0f95004d72b, type: 3}
      propertyPath: m_LocalPosition.x
      value: 0.01
      objectReference: {fileID: 0}
    - target: {fileID: 400000, guid: 9d811b3b2f2dc534e8a0d0f95004d72b, type: 3}
      propertyPath: m_LocalPosition.y
      value: 0.5
      objectReference: {fileID: 0}
    - target: {fileID: 400000, guid: 9d811b3b2f2dc534e8a0d0f95004d72b, type: 3}
      propertyPath: m_LocalPosition.z
      value: 0.31
      objectReference: {fileID: 0}
    - target: {fileID: 400000, guid: 9d811b3b2f2dc534e8a0d0f95004d72b, type: 3}
      propertyPath: m_LocalRotation.x
      value: -0
      objectReference: {fileID: 0}
    - target: {fileID: 400000, guid: 9d811b3b2f2dc534e8a0d0f95004d72b, type: 3}
      propertyPath: m_LocalRotation.y
      value: -0
      objectReference: {fileID: 0}
    - target: {fileID: 400000, guid: 9d811b3b2f2dc534e8a0d0f95004d72b, type: 3}
      propertyPath: m_LocalRotation.z
      value: -0
      objectReference: {fileID: 0}
    - target: {fileID: 400000, guid: 9d811b3b2f2dc534e8a0d0f95004d72b, type: 3}
      propertyPath: m_LocalRotation.w
      value: 1
      objectReference: {fileID: 0}
    - target: {fileID: 400000, guid: 9d811b3b2f2dc534e8a0d0f95004d72b, type: 3}
      propertyPath: m_RootOrder
      value: 4
      objectReference: {fileID: 0}
    - target: {fileID: 400000, guid: 9d811b3b2f2dc534e8a0d0f95004d72b, type: 3}
      propertyPath: m_LocalEulerAnglesHint.x
      value: 0
      objectReference: {fileID: 0}
    - target: {fileID: 400000, guid: 9d811b3b2f2dc534e8a0d0f95004d72b, type: 3}
      propertyPath: m_LocalEulerAnglesHint.y
      value: 0
      objectReference: {fileID: 0}
    - target: {fileID: 400000, guid: 9d811b3b2f2dc534e8a0d0f95004d72b, type: 3}
      propertyPath: m_LocalEulerAnglesHint.z
      value: 0
      objectReference: {fileID: 0}
    - target: {fileID: 400000, guid: 9d811b3b2f2dc534e8a0d0f95004d72b, type: 3}
      propertyPath: m_LocalScale.z
      value: 0.02
      objectReference: {fileID: 0}
    - target: {fileID: 400000, guid: 9d811b3b2f2dc534e8a0d0f95004d72b, type: 3}
      propertyPath: m_LocalScale.y
      value: 0.8
      objectReference: {fileID: 0}
    - target: {fileID: 400000, guid: 9d811b3b2f2dc534e8a0d0f95004d72b, type: 3}
      propertyPath: m_LocalScale.x
      value: 0.75
      objectReference: {fileID: 0}
    m_RemovedComponents: []
  m_SourcePrefab: {fileID: 100100000, guid: 9d811b3b2f2dc534e8a0d0f95004d72b, type: 3}
--- !u!1 &3717598077587632880 stripped
GameObject:
  m_CorrespondingSourceObject: {fileID: 100000, guid: 9d811b3b2f2dc534e8a0d0f95004d72b,
    type: 3}
  m_PrefabInstance: {fileID: 3717598077587600464}
  m_PrefabAsset: {fileID: 0}
--- !u!4 &3717598077587992272 stripped
Transform:
  m_CorrespondingSourceObject: {fileID: 400000, guid: 9d811b3b2f2dc534e8a0d0f95004d72b,
    type: 3}
  m_PrefabInstance: {fileID: 3717598077587600464}
  m_PrefabAsset: {fileID: 0}
--- !u!1001 &3825459376771790328
PrefabInstance:
  m_ObjectHideFlags: 0
  serializedVersion: 2
  m_Modification:
    m_TransformParent: {fileID: 7999596406782778537}
    m_Modifications:
    - target: {fileID: 100000, guid: 66a509b29a0f1ba43bb4a16ce83ee121, type: 3}
      propertyPath: m_Name
      value: FruitTree_4 (1)
      objectReference: {fileID: 0}
    - target: {fileID: 400000, guid: 66a509b29a0f1ba43bb4a16ce83ee121, type: 3}
      propertyPath: m_LocalPosition.x
      value: 0.24
      objectReference: {fileID: 0}
    - target: {fileID: 400000, guid: 66a509b29a0f1ba43bb4a16ce83ee121, type: 3}
      propertyPath: m_LocalPosition.y
      value: 0.5
      objectReference: {fileID: 0}
    - target: {fileID: 400000, guid: 66a509b29a0f1ba43bb4a16ce83ee121, type: 3}
      propertyPath: m_LocalPosition.z
      value: 0.182
      objectReference: {fileID: 0}
    - target: {fileID: 400000, guid: 66a509b29a0f1ba43bb4a16ce83ee121, type: 3}
      propertyPath: m_LocalRotation.x
      value: 0.00000008146034
      objectReference: {fileID: 0}
    - target: {fileID: 400000, guid: 66a509b29a0f1ba43bb4a16ce83ee121, type: 3}
      propertyPath: m_LocalRotation.y
      value: -0
      objectReference: {fileID: 0}
    - target: {fileID: 400000, guid: 66a509b29a0f1ba43bb4a16ce83ee121, type: 3}
      propertyPath: m_LocalRotation.z
      value: -0
      objectReference: {fileID: 0}
    - target: {fileID: 400000, guid: 66a509b29a0f1ba43bb4a16ce83ee121, type: 3}
      propertyPath: m_LocalRotation.w
      value: 1
      objectReference: {fileID: 0}
    - target: {fileID: 400000, guid: 66a509b29a0f1ba43bb4a16ce83ee121, type: 3}
      propertyPath: m_RootOrder
      value: 5
      objectReference: {fileID: 0}
    - target: {fileID: 400000, guid: 66a509b29a0f1ba43bb4a16ce83ee121, type: 3}
      propertyPath: m_LocalEulerAnglesHint.x
      value: 0
      objectReference: {fileID: 0}
    - target: {fileID: 400000, guid: 66a509b29a0f1ba43bb4a16ce83ee121, type: 3}
      propertyPath: m_LocalEulerAnglesHint.y
      value: 0
      objectReference: {fileID: 0}
    - target: {fileID: 400000, guid: 66a509b29a0f1ba43bb4a16ce83ee121, type: 3}
      propertyPath: m_LocalEulerAnglesHint.z
      value: 0
      objectReference: {fileID: 0}
    - target: {fileID: 400000, guid: 66a509b29a0f1ba43bb4a16ce83ee121, type: 3}
      propertyPath: m_LocalScale.z
      value: 0.001
      objectReference: {fileID: 0}
    - target: {fileID: 400000, guid: 66a509b29a0f1ba43bb4a16ce83ee121, type: 3}
      propertyPath: m_LocalScale.x
      value: 0.05
      objectReference: {fileID: 0}
    - target: {fileID: 400000, guid: 66a509b29a0f1ba43bb4a16ce83ee121, type: 3}
      propertyPath: m_LocalScale.y
      value: 0.05
      objectReference: {fileID: 0}
    m_RemovedComponents: []
  m_SourcePrefab: {fileID: 100100000, guid: 66a509b29a0f1ba43bb4a16ce83ee121, type: 3}
--- !u!1 &3825459376771756888 stripped
GameObject:
  m_CorrespondingSourceObject: {fileID: 100000, guid: 66a509b29a0f1ba43bb4a16ce83ee121,
    type: 3}
  m_PrefabInstance: {fileID: 3825459376771790328}
  m_PrefabAsset: {fileID: 0}
--- !u!4 &3825459376771919736 stripped
Transform:
  m_CorrespondingSourceObject: {fileID: 400000, guid: 66a509b29a0f1ba43bb4a16ce83ee121,
    type: 3}
  m_PrefabInstance: {fileID: 3825459376771790328}
  m_PrefabAsset: {fileID: 0}
--- !u!1001 &4016129755776488514
PrefabInstance:
  m_ObjectHideFlags: 0
  serializedVersion: 2
  m_Modification:
    m_TransformParent: {fileID: 7999596406782778537}
    m_Modifications:
    - target: {fileID: 100000, guid: 19f53529515092141b8f72421798053d, type: 3}
      propertyPath: m_Name
      value: Tree_1
      objectReference: {fileID: 0}
    - target: {fileID: 400000, guid: 19f53529515092141b8f72421798053d, type: 3}
      propertyPath: m_LocalPosition.x
      value: -0.02
      objectReference: {fileID: 0}
    - target: {fileID: 400000, guid: 19f53529515092141b8f72421798053d, type: 3}
      propertyPath: m_LocalPosition.y
      value: 0.5
      objectReference: {fileID: 0}
    - target: {fileID: 400000, guid: 19f53529515092141b8f72421798053d, type: 3}
      propertyPath: m_LocalPosition.z
      value: 0.022
      objectReference: {fileID: 0}
    - target: {fileID: 400000, guid: 19f53529515092141b8f72421798053d, type: 3}
      propertyPath: m_LocalRotation.x
      value: -0
      objectReference: {fileID: 0}
    - target: {fileID: 400000, guid: 19f53529515092141b8f72421798053d, type: 3}
      propertyPath: m_LocalRotation.y
      value: -0
      objectReference: {fileID: 0}
    - target: {fileID: 400000, guid: 19f53529515092141b8f72421798053d, type: 3}
      propertyPath: m_LocalRotation.z
      value: -0
      objectReference: {fileID: 0}
    - target: {fileID: 400000, guid: 19f53529515092141b8f72421798053d, type: 3}
      propertyPath: m_LocalRotation.w
      value: 1
      objectReference: {fileID: 0}
    - target: {fileID: 400000, guid: 19f53529515092141b8f72421798053d, type: 3}
      propertyPath: m_RootOrder
      value: 1
      objectReference: {fileID: 0}
    - target: {fileID: 400000, guid: 19f53529515092141b8f72421798053d, type: 3}
      propertyPath: m_LocalEulerAnglesHint.x
      value: 0
      objectReference: {fileID: 0}
    - target: {fileID: 400000, guid: 19f53529515092141b8f72421798053d, type: 3}
      propertyPath: m_LocalEulerAnglesHint.y
      value: 0
      objectReference: {fileID: 0}
    - target: {fileID: 400000, guid: 19f53529515092141b8f72421798053d, type: 3}
      propertyPath: m_LocalEulerAnglesHint.z
      value: 0
      objectReference: {fileID: 0}
    - target: {fileID: 400000, guid: 19f53529515092141b8f72421798053d, type: 3}
      propertyPath: m_LocalScale.z
      value: 0.02
      objectReference: {fileID: 0}
    m_RemovedComponents: []
  m_SourcePrefab: {fileID: 100100000, guid: 19f53529515092141b8f72421798053d, type: 3}
--- !u!1 &4016129755776455394 stripped
GameObject:
  m_CorrespondingSourceObject: {fileID: 100000, guid: 19f53529515092141b8f72421798053d,
    type: 3}
  m_PrefabInstance: {fileID: 4016129755776488514}
  m_PrefabAsset: {fileID: 0}
--- !u!4 &4016129755776093890 stripped
Transform:
  m_CorrespondingSourceObject: {fileID: 400000, guid: 19f53529515092141b8f72421798053d,
    type: 3}
  m_PrefabInstance: {fileID: 4016129755776488514}
  m_PrefabAsset: {fileID: 0}
--- !u!1001 &5004287589753984549
PrefabInstance:
  m_ObjectHideFlags: 0
  serializedVersion: 2
  m_Modification:
    m_TransformParent: {fileID: 7999596406782778537}
    m_Modifications:
    - target: {fileID: 3411054808035631693, guid: f37b0c05965f0dc48b6bcc40ceeb0687,
        type: 3}
      propertyPath: m_Name
      value: Coin (1)
      objectReference: {fileID: 0}
    - target: {fileID: 7704140320757697485, guid: f37b0c05965f0dc48b6bcc40ceeb0687,
        type: 3}
      propertyPath: m_LocalPosition.x
      value: 0
      objectReference: {fileID: 0}
    - target: {fileID: 7704140320757697485, guid: f37b0c05965f0dc48b6bcc40ceeb0687,
        type: 3}
      propertyPath: m_LocalPosition.y
      value: 0.07513804
      objectReference: {fileID: 0}
    - target: {fileID: 7704140320757697485, guid: f37b0c05965f0dc48b6bcc40ceeb0687,
        type: 3}
      propertyPath: m_LocalPosition.z
      value: -0.059
      objectReference: {fileID: 0}
    - target: {fileID: 7704140320757697485, guid: f37b0c05965f0dc48b6bcc40ceeb0687,
        type: 3}
      propertyPath: m_LocalRotation.x
      value: -0
      objectReference: {fileID: 0}
    - target: {fileID: 7704140320757697485, guid: f37b0c05965f0dc48b6bcc40ceeb0687,
        type: 3}
      propertyPath: m_LocalRotation.y
      value: -0
      objectReference: {fileID: 0}
    - target: {fileID: 7704140320757697485, guid: f37b0c05965f0dc48b6bcc40ceeb0687,
        type: 3}
      propertyPath: m_LocalRotation.z
      value: -0
      objectReference: {fileID: 0}
    - target: {fileID: 7704140320757697485, guid: f37b0c05965f0dc48b6bcc40ceeb0687,
        type: 3}
      propertyPath: m_LocalRotation.w
      value: 1
      objectReference: {fileID: 0}
    - target: {fileID: 7704140320757697485, guid: f37b0c05965f0dc48b6bcc40ceeb0687,
        type: 3}
      propertyPath: m_RootOrder
      value: 7
      objectReference: {fileID: 0}
    - target: {fileID: 7704140320757697485, guid: f37b0c05965f0dc48b6bcc40ceeb0687,
        type: 3}
      propertyPath: m_LocalEulerAnglesHint.x
      value: 0
      objectReference: {fileID: 0}
    - target: {fileID: 7704140320757697485, guid: f37b0c05965f0dc48b6bcc40ceeb0687,
        type: 3}
      propertyPath: m_LocalEulerAnglesHint.y
      value: 0
      objectReference: {fileID: 0}
    - target: {fileID: 7704140320757697485, guid: f37b0c05965f0dc48b6bcc40ceeb0687,
        type: 3}
      propertyPath: m_LocalEulerAnglesHint.z
      value: 0
      objectReference: {fileID: 0}
    - target: {fileID: 7704140320757697485, guid: f37b0c05965f0dc48b6bcc40ceeb0687,
        type: 3}
      propertyPath: m_LocalScale.z
      value: 0.017
      objectReference: {fileID: 0}
    m_RemovedComponents: []
  m_SourcePrefab: {fileID: 100100000, guid: f37b0c05965f0dc48b6bcc40ceeb0687, type: 3}
--- !u!4 &3429587603281173992 stripped
Transform:
  m_CorrespondingSourceObject: {fileID: 7704140320757697485, guid: f37b0c05965f0dc48b6bcc40ceeb0687,
    type: 3}
  m_PrefabInstance: {fileID: 5004287589753984549}
  m_PrefabAsset: {fileID: 0}
--- !u!1001 &6958756292675781782
PrefabInstance:
  m_ObjectHideFlags: 0
  serializedVersion: 2
  m_Modification:
    m_TransformParent: {fileID: 7999596406782778537}
    m_Modifications:
    - target: {fileID: 100000, guid: 19f53529515092141b8f72421798053d, type: 3}
      propertyPath: m_Name
      value: Tree_1 (1)
      objectReference: {fileID: 0}
    - target: {fileID: 400000, guid: 19f53529515092141b8f72421798053d, type: 3}
      propertyPath: m_LocalPosition.x
      value: -0.02
      objectReference: {fileID: 0}
    - target: {fileID: 400000, guid: 19f53529515092141b8f72421798053d, type: 3}
      propertyPath: m_LocalPosition.y
      value: 0.5
      objectReference: {fileID: 0}
    - target: {fileID: 400000, guid: 19f53529515092141b8f72421798053d, type: 3}
      propertyPath: m_LocalPosition.z
      value: -0.264
      objectReference: {fileID: 0}
    - target: {fileID: 400000, guid: 19f53529515092141b8f72421798053d, type: 3}
      propertyPath: m_LocalRotation.x
      value: -0
      objectReference: {fileID: 0}
    - target: {fileID: 400000, guid: 19f53529515092141b8f72421798053d, type: 3}
      propertyPath: m_LocalRotation.y
      value: -0
      objectReference: {fileID: 0}
    - target: {fileID: 400000, guid: 19f53529515092141b8f72421798053d, type: 3}
      propertyPath: m_LocalRotation.z
      value: -0
      objectReference: {fileID: 0}
    - target: {fileID: 400000, guid: 19f53529515092141b8f72421798053d, type: 3}
      propertyPath: m_LocalRotation.w
      value: 1
      objectReference: {fileID: 0}
    - target: {fileID: 400000, guid: 19f53529515092141b8f72421798053d, type: 3}
      propertyPath: m_RootOrder
      value: 2
      objectReference: {fileID: 0}
    - target: {fileID: 400000, guid: 19f53529515092141b8f72421798053d, type: 3}
      propertyPath: m_LocalEulerAnglesHint.x
      value: 0
      objectReference: {fileID: 0}
    - target: {fileID: 400000, guid: 19f53529515092141b8f72421798053d, type: 3}
      propertyPath: m_LocalEulerAnglesHint.y
      value: 0
      objectReference: {fileID: 0}
    - target: {fileID: 400000, guid: 19f53529515092141b8f72421798053d, type: 3}
      propertyPath: m_LocalEulerAnglesHint.z
      value: 0
      objectReference: {fileID: 0}
    - target: {fileID: 400000, guid: 19f53529515092141b8f72421798053d, type: 3}
      propertyPath: m_LocalScale.z
      value: 0.02
      objectReference: {fileID: 0}
    m_RemovedComponents: []
  m_SourcePrefab: {fileID: 100100000, guid: 19f53529515092141b8f72421798053d, type: 3}
--- !u!1 &6958756292675879478 stripped
GameObject:
  m_CorrespondingSourceObject: {fileID: 100000, guid: 19f53529515092141b8f72421798053d,
    type: 3}
  m_PrefabInstance: {fileID: 6958756292675781782}
  m_PrefabAsset: {fileID: 0}
--- !u!4 &6958756292675657238 stripped
Transform:
  m_CorrespondingSourceObject: {fileID: 400000, guid: 19f53529515092141b8f72421798053d,
    type: 3}
  m_PrefabInstance: {fileID: 6958756292675781782}
  m_PrefabAsset: {fileID: 0}
--- !u!1001 &8183939396633262761
PrefabInstance:
  m_ObjectHideFlags: 0
  serializedVersion: 2
  m_Modification:
    m_TransformParent: {fileID: 7999596406782778537}
    m_Modifications:
    - target: {fileID: 100000, guid: 9d811b3b2f2dc534e8a0d0f95004d72b, type: 3}
      propertyPath: m_Name
      value: Tree_3
      objectReference: {fileID: 0}
    - target: {fileID: 400000, guid: 9d811b3b2f2dc534e8a0d0f95004d72b, type: 3}
      propertyPath: m_LocalPosition.x
      value: -0.01
      objectReference: {fileID: 0}
    - target: {fileID: 400000, guid: 9d811b3b2f2dc534e8a0d0f95004d72b, type: 3}
      propertyPath: m_LocalPosition.y
      value: 0.5
      objectReference: {fileID: 0}
    - target: {fileID: 400000, guid: 9d811b3b2f2dc534e8a0d0f95004d72b, type: 3}
      propertyPath: m_LocalPosition.z
      value: -0.39
      objectReference: {fileID: 0}
    - target: {fileID: 400000, guid: 9d811b3b2f2dc534e8a0d0f95004d72b, type: 3}
      propertyPath: m_LocalRotation.x
      value: -0
      objectReference: {fileID: 0}
    - target: {fileID: 400000, guid: 9d811b3b2f2dc534e8a0d0f95004d72b, type: 3}
      propertyPath: m_LocalRotation.y
      value: -0
      objectReference: {fileID: 0}
    - target: {fileID: 400000, guid: 9d811b3b2f2dc534e8a0d0f95004d72b, type: 3}
      propertyPath: m_LocalRotation.z
      value: -0
      objectReference: {fileID: 0}
    - target: {fileID: 400000, guid: 9d811b3b2f2dc534e8a0d0f95004d72b, type: 3}
      propertyPath: m_LocalRotation.w
      value: 1
      objectReference: {fileID: 0}
    - target: {fileID: 400000, guid: 9d811b3b2f2dc534e8a0d0f95004d72b, type: 3}
      propertyPath: m_RootOrder
      value: 3
      objectReference: {fileID: 0}
    - target: {fileID: 400000, guid: 9d811b3b2f2dc534e8a0d0f95004d72b, type: 3}
      propertyPath: m_LocalEulerAnglesHint.x
      value: 0
      objectReference: {fileID: 0}
    - target: {fileID: 400000, guid: 9d811b3b2f2dc534e8a0d0f95004d72b, type: 3}
      propertyPath: m_LocalEulerAnglesHint.y
      value: 0
      objectReference: {fileID: 0}
    - target: {fileID: 400000, guid: 9d811b3b2f2dc534e8a0d0f95004d72b, type: 3}
      propertyPath: m_LocalEulerAnglesHint.z
      value: 0
      objectReference: {fileID: 0}
    - target: {fileID: 400000, guid: 9d811b3b2f2dc534e8a0d0f95004d72b, type: 3}
      propertyPath: m_LocalScale.z
      value: 0.02
      objectReference: {fileID: 0}
    - target: {fileID: 400000, guid: 9d811b3b2f2dc534e8a0d0f95004d72b, type: 3}
      propertyPath: m_LocalScale.y
      value: 0.8
      objectReference: {fileID: 0}
    - target: {fileID: 400000, guid: 9d811b3b2f2dc534e8a0d0f95004d72b, type: 3}
      propertyPath: m_LocalScale.x
      value: 0.75
      objectReference: {fileID: 0}
    m_RemovedComponents: []
  m_SourcePrefab: {fileID: 100100000, guid: 9d811b3b2f2dc534e8a0d0f95004d72b, type: 3}
--- !u!4 &8183939396632862761 stripped
Transform:
  m_CorrespondingSourceObject: {fileID: 400000, guid: 9d811b3b2f2dc534e8a0d0f95004d72b,
    type: 3}
  m_PrefabInstance: {fileID: 8183939396633262761}
  m_PrefabAsset: {fileID: 0}
--- !u!1 &8183939396633361417 stripped
GameObject:
  m_CorrespondingSourceObject: {fileID: 100000, guid: 9d811b3b2f2dc534e8a0d0f95004d72b,
    type: 3}
  m_PrefabInstance: {fileID: 8183939396633262761}
  m_PrefabAsset: {fileID: 0}
