%YAML 1.1
%TAG !u! tag:unity3d.com,2011:
--- !u!1 &269373396751952139
GameObject:
  m_ObjectHideFlags: 0
  m_CorrespondingSourceObject: {fileID: 0}
  m_PrefabInstance: {fileID: 0}
  m_PrefabAsset: {fileID: 0}
  serializedVersion: 6
  m_Component:
  - component: {fileID: 8245530572927539996}
  - component: {fileID: 27104156950021014}
  - component: {fileID: 2939826727902115037}
  - component: {fileID: 3437555178359999325}
  - component: {fileID: -8374710263275593860}
  m_Layer: 0
  m_Name: Road_1
  m_TagString: Road
  m_Icon: {fileID: 0}
  m_NavMeshLayer: 0
  m_StaticEditorFlags: 0
  m_IsActive: 1
--- !u!4 &8245530572927539996
Transform:
  m_ObjectHideFlags: 0
  m_CorrespondingSourceObject: {fileID: 0}
  m_PrefabInstance: {fileID: 0}
  m_PrefabAsset: {fileID: 0}
  m_GameObject: {fileID: 269373396751952139}
  m_LocalRotation: {x: 0, y: 0, z: 0, w: 1}
  m_LocalPosition: {x: 0, y: 0, z: 0}
  m_LocalScale: {x: 1, y: 1, z: 50}
  m_Children:
  - {fileID: 3647755395012339778}
  - {fileID: 7885614404136321377}
  - {fileID: 421781439470918495}
  - {fileID: 1684429929883612744}
  m_Father: {fileID: 0}
  m_RootOrder: 0
  m_LocalEulerAnglesHint: {x: 0, y: 0, z: 0}
--- !u!33 &27104156950021014
MeshFilter:
  m_ObjectHideFlags: 0
  m_CorrespondingSourceObject: {fileID: 0}
  m_PrefabInstance: {fileID: 0}
  m_PrefabAsset: {fileID: 0}
  m_GameObject: {fileID: 269373396751952139}
  m_Mesh: {fileID: 10202, guid: 0000000000000000e000000000000000, type: 0}
--- !u!23 &2939826727902115037
MeshRenderer:
  m_ObjectHideFlags: 0
  m_CorrespondingSourceObject: {fileID: 0}
  m_PrefabInstance: {fileID: 0}
  m_PrefabAsset: {fileID: 0}
  m_GameObject: {fileID: 269373396751952139}
  m_Enabled: 1
  m_CastShadows: 1
  m_ReceiveShadows: 1
  m_DynamicOccludee: 1
  m_MotionVectors: 1
  m_LightProbeUsage: 1
  m_ReflectionProbeUsage: 1
  m_RayTracingMode: 2
  m_RenderingLayerMask: 1
  m_RendererPriority: 0
  m_Materials:
  - {fileID: 2100000, guid: 40bffc194c97e1d479c5a60996483c78, type: 2}
  m_StaticBatchInfo:
    firstSubMesh: 0
    subMeshCount: 0
  m_StaticBatchRoot: {fileID: 0}
  m_ProbeAnchor: {fileID: 0}
  m_LightProbeVolumeOverride: {fileID: 0}
  m_ScaleInLightmap: 1
  m_ReceiveGI: 1
  m_PreserveUVs: 0
  m_IgnoreNormalsForChartDetection: 0
  m_ImportantGI: 0
  m_StitchLightmapSeams: 1
  m_SelectedEditorRenderState: 3
  m_MinimumChartSize: 4
  m_AutoUVMaxDistance: 0.5
  m_AutoUVMaxAngle: 89
  m_LightmapParameters: {fileID: 0}
  m_SortingLayerID: 0
  m_SortingLayer: 0
  m_SortingOrder: 0
--- !u!65 &3437555178359999325
BoxCollider:
  m_ObjectHideFlags: 0
  m_CorrespondingSourceObject: {fileID: 0}
  m_PrefabInstance: {fileID: 0}
  m_PrefabAsset: {fileID: 0}
  m_GameObject: {fileID: 269373396751952139}
  m_Material: {fileID: 0}
  m_IsTrigger: 0
  m_Enabled: 1
  serializedVersion: 2
  m_Size: {x: 1, y: 1, z: 1}
  m_Center: {x: 0, y: 0, z: 0}
--- !u!114 &-8374710263275593860
MonoBehaviour:
  m_ObjectHideFlags: 0
  m_CorrespondingSourceObject: {fileID: 0}
  m_PrefabInstance: {fileID: 0}
  m_PrefabAsset: {fileID: 0}
  m_GameObject: {fileID: 269373396751952139}
  m_Enabled: 1
  m_EditorHideFlags: 0
  m_Script: {fileID: 11500000, guid: 63ce452d47a7bda43b36ea4394417934, type: 3}
  m_Name: 
  m_EditorClassIdentifier: 
  movingObject: {fileID: 1977796281193266, guid: c03d7a141f014664fa3e50871bc681a8,
    type: 3}
  spawnPosition: {fileID: 3647755395012339778}
  minWaitTime: 1
  maxWaitTime: 5
--- !u!1 &7516537207487919009
GameObject:
  m_ObjectHideFlags: 0
  m_CorrespondingSourceObject: {fileID: 0}
  m_PrefabInstance: {fileID: 0}
  m_PrefabAsset: {fileID: 0}
  serializedVersion: 6
  m_Component:
  - component: {fileID: 3647755395012339778}
  m_Layer: 0
  m_Name: SpawnPosition
  m_TagString: Untagged
  m_Icon: {fileID: 0}
  m_NavMeshLayer: 0
  m_StaticEditorFlags: 0
  m_IsActive: 1
--- !u!4 &3647755395012339778
Transform:
  m_ObjectHideFlags: 0
  m_CorrespondingSourceObject: {fileID: 0}
  m_PrefabInstance: {fileID: 0}
  m_PrefabAsset: {fileID: 0}
  m_GameObject: {fileID: 7516537207487919009}
  m_LocalRotation: {x: 0, y: -0.7071068, z: 0, w: 0.7071068}
  m_LocalPosition: {x: 0, y: 0.5, z: -0.45}
  m_LocalScale: {x: 1, y: 1, z: 1}
  m_Children: []
  m_Father: {fileID: 8245530572927539996}
  m_RootOrder: 0
  m_LocalEulerAnglesHint: {x: 0, y: -90, z: 0}
--- !u!1001 &542066143040965292
PrefabInstance:
  m_ObjectHideFlags: 0
  serializedVersion: 2
  m_Modification:
    m_TransformParent: {fileID: 8245530572927539996}
    m_Modifications:
    - target: {fileID: 3411054808035631693, guid: f37b0c05965f0dc48b6bcc40ceeb0687,
        type: 3}
      propertyPath: m_Name
      value: Coin
      objectReference: {fileID: 0}
    - target: {fileID: 7704140320757697485, guid: f37b0c05965f0dc48b6bcc40ceeb0687,
        type: 3}
      propertyPath: m_LocalPosition.x
      value: 0
      objectReference: {fileID: 0}
    - target: {fileID: 7704140320757697485, guid: f37b0c05965f0dc48b6bcc40ceeb0687,
        type: 3}
      propertyPath: m_LocalPosition.y
      value: 0.1
      objectReference: {fileID: 0}
    - target: {fileID: 7704140320757697485, guid: f37b0c05965f0dc48b6bcc40ceeb0687,
        type: 3}
      propertyPath: m_LocalPosition.z
      value: -0.07592119
      objectReference: {fileID: 0}
    - target: {fileID: 7704140320757697485, guid: f37b0c05965f0dc48b6bcc40ceeb0687,
        type: 3}
      propertyPath: m_LocalRotation.x
      value: -0
      objectReference: {fileID: 0}
    - target: {fileID: 7704140320757697485, guid: f37b0c05965f0dc48b6bcc40ceeb0687,
        type: 3}
      propertyPath: m_LocalRotation.y
      value: -0
      objectReference: {fileID: 0}
    - target: {fileID: 7704140320757697485, guid: f37b0c05965f0dc48b6bcc40ceeb0687,
        type: 3}
      propertyPath: m_LocalRotation.z
      value: -0
      objectReference: {fileID: 0}
    - target: {fileID: 7704140320757697485, guid: f37b0c05965f0dc48b6bcc40ceeb0687,
        type: 3}
      propertyPath: m_LocalRotation.w
      value: 1
      objectReference: {fileID: 0}
    - target: {fileID: 7704140320757697485, guid: f37b0c05965f0dc48b6bcc40ceeb0687,
        type: 3}
      propertyPath: m_RootOrder
      value: 1
      objectReference: {fileID: 0}
    - target: {fileID: 7704140320757697485, guid: f37b0c05965f0dc48b6bcc40ceeb0687,
        type: 3}
      propertyPath: m_LocalEulerAnglesHint.x
      value: 0
      objectReference: {fileID: 0}
    - target: {fileID: 7704140320757697485, guid: f37b0c05965f0dc48b6bcc40ceeb0687,
        type: 3}
      propertyPath: m_LocalEulerAnglesHint.y
      value: 0
      objectReference: {fileID: 0}
    - target: {fileID: 7704140320757697485, guid: f37b0c05965f0dc48b6bcc40ceeb0687,
        type: 3}
      propertyPath: m_LocalEulerAnglesHint.z
      value: 0
      objectReference: {fileID: 0}
    - target: {fileID: 7704140320757697485, guid: f37b0c05965f0dc48b6bcc40ceeb0687,
        type: 3}
      propertyPath: m_LocalScale.z
      value: 0.017
      objectReference: {fileID: 0}
    m_RemovedComponents: []
  m_SourcePrefab: {fileID: 100100000, guid: f37b0c05965f0dc48b6bcc40ceeb0687, type: 3}
--- !u!4 &7885614404136321377 stripped
Transform:
  m_CorrespondingSourceObject: {fileID: 7704140320757697485, guid: f37b0c05965f0dc48b6bcc40ceeb0687,
    type: 3}
  m_PrefabInstance: {fileID: 542066143040965292}
  m_PrefabAsset: {fileID: 0}
--- !u!1001 &8012164534586478738
PrefabInstance:
  m_ObjectHideFlags: 0
  serializedVersion: 2
  m_Modification:
    m_TransformParent: {fileID: 8245530572927539996}
    m_Modifications:
    - target: {fileID: 3411054808035631693, guid: f37b0c05965f0dc48b6bcc40ceeb0687,
        type: 3}
      propertyPath: m_Name
      value: Coin (1)
      objectReference: {fileID: 0}
    - target: {fileID: 7704140320757697485, guid: f37b0c05965f0dc48b6bcc40ceeb0687,
        type: 3}
      propertyPath: m_LocalPosition.x
      value: 0
      objectReference: {fileID: 0}
    - target: {fileID: 7704140320757697485, guid: f37b0c05965f0dc48b6bcc40ceeb0687,
        type: 3}
      propertyPath: m_LocalPosition.y
      value: 0.1
      objectReference: {fileID: 0}
    - target: {fileID: 7704140320757697485, guid: f37b0c05965f0dc48b6bcc40ceeb0687,
        type: 3}
      propertyPath: m_LocalPosition.z
      value: 0.2126
      objectReference: {fileID: 0}
    - target: {fileID: 7704140320757697485, guid: f37b0c05965f0dc48b6bcc40ceeb0687,
        type: 3}
      propertyPath: m_LocalRotation.x
      value: -0
      objectReference: {fileID: 0}
    - target: {fileID: 7704140320757697485, guid: f37b0c05965f0dc48b6bcc40ceeb0687,
        type: 3}
      propertyPath: m_LocalRotation.y
      value: -0
      objectReference: {fileID: 0}
    - target: {fileID: 7704140320757697485, guid: f37b0c05965f0dc48b6bcc40ceeb0687,
        type: 3}
      propertyPath: m_LocalRotation.z
      value: -0
      objectReference: {fileID: 0}
    - target: {fileID: 7704140320757697485, guid: f37b0c05965f0dc48b6bcc40ceeb0687,
        type: 3}
      propertyPath: m_LocalRotation.w
      value: 1
      objectReference: {fileID: 0}
    - target: {fileID: 7704140320757697485, guid: f37b0c05965f0dc48b6bcc40ceeb0687,
        type: 3}
      propertyPath: m_RootOrder
      value: 2
      objectReference: {fileID: 0}
    - target: {fileID: 7704140320757697485, guid: f37b0c05965f0dc48b6bcc40ceeb0687,
        type: 3}
      propertyPath: m_LocalEulerAnglesHint.x
      value: 0
      objectReference: {fileID: 0}
    - target: {fileID: 7704140320757697485, guid: f37b0c05965f0dc48b6bcc40ceeb0687,
        type: 3}
      propertyPath: m_LocalEulerAnglesHint.y
      value: 0
      objectReference: {fileID: 0}
    - target: {fileID: 7704140320757697485, guid: f37b0c05965f0dc48b6bcc40ceeb0687,
        type: 3}
      propertyPath: m_LocalEulerAnglesHint.z
      value: 0
      objectReference: {fileID: 0}
    - target: {fileID: 7704140320757697485, guid: f37b0c05965f0dc48b6bcc40ceeb0687,
        type: 3}
      propertyPath: m_LocalScale.z
      value: 0.017
      objectReference: {fileID: 0}
    m_RemovedComponents: []
  m_SourcePrefab: {fileID: 100100000, guid: f37b0c05965f0dc48b6bcc40ceeb0687, type: 3}
--- !u!4 &421781439470918495 stripped
Transform:
  m_CorrespondingSourceObject: {fileID: 7704140320757697485, guid: f37b0c05965f0dc48b6bcc40ceeb0687,
    type: 3}
  m_PrefabInstance: {fileID: 8012164534586478738}
  m_PrefabAsset: {fileID: 0}
--- !u!1001 &9046279013675924869
PrefabInstance:
  m_ObjectHideFlags: 0
  serializedVersion: 2
  m_Modification:
    m_TransformParent: {fileID: 8245530572927539996}
    m_Modifications:
    - target: {fileID: 3411054808035631693, guid: f37b0c05965f0dc48b6bcc40ceeb0687,
        type: 3}
      propertyPath: m_Name
      value: Coin (2)
      objectReference: {fileID: 0}
    - target: {fileID: 7704140320757697485, guid: f37b0c05965f0dc48b6bcc40ceeb0687,
        type: 3}
      propertyPath: m_LocalPosition.x
      value: 0
      objectReference: {fileID: 0}
    - target: {fileID: 7704140320757697485, guid: f37b0c05965f0dc48b6bcc40ceeb0687,
        type: 3}
      propertyPath: m_LocalPosition.y
      value: 0.1
      objectReference: {fileID: 0}
    - target: {fileID: 7704140320757697485, guid: f37b0c05965f0dc48b6bcc40ceeb0687,
        type: 3}
      propertyPath: m_LocalPosition.z
      value: -0.347
      objectReference: {fileID: 0}
    - target: {fileID: 7704140320757697485, guid: f37b0c05965f0dc48b6bcc40ceeb0687,
        type: 3}
      propertyPath: m_LocalRotation.x
      value: -0
      objectReference: {fileID: 0}
    - target: {fileID: 7704140320757697485, guid: f37b0c05965f0dc48b6bcc40ceeb0687,
        type: 3}
      propertyPath: m_LocalRotation.y
      value: -0
      objectReference: {fileID: 0}
    - target: {fileID: 7704140320757697485, guid: f37b0c05965f0dc48b6bcc40ceeb0687,
        type: 3}
      propertyPath: m_LocalRotation.z
      value: -0
      objectReference: {fileID: 0}
    - target: {fileID: 7704140320757697485, guid: f37b0c05965f0dc48b6bcc40ceeb0687,
        type: 3}
      propertyPath: m_LocalRotation.w
      value: 1
      objectReference: {fileID: 0}
    - target: {fileID: 7704140320757697485, guid: f37b0c05965f0dc48b6bcc40ceeb0687,
        type: 3}
      propertyPath: m_RootOrder
      value: 3
      objectReference: {fileID: 0}
    - target: {fileID: 7704140320757697485, guid: f37b0c05965f0dc48b6bcc40ceeb0687,
        type: 3}
      propertyPath: m_LocalEulerAnglesHint.x
      value: 0
      objectReference: {fileID: 0}
    - target: {fileID: 7704140320757697485, guid: f37b0c05965f0dc48b6bcc40ceeb0687,
        type: 3}
      propertyPath: m_LocalEulerAnglesHint.y
      value: 0
      objectReference: {fileID: 0}
    - target: {fileID: 7704140320757697485, guid: f37b0c05965f0dc48b6bcc40ceeb0687,
        type: 3}
      propertyPath: m_LocalEulerAnglesHint.z
      value: 0
      objectReference: {fileID: 0}
    - target: {fileID: 7704140320757697485, guid: f37b0c05965f0dc48b6bcc40ceeb0687,
        type: 3}
      propertyPath: m_LocalScale.z
      value: 0.017
      objectReference: {fileID: 0}
    m_RemovedComponents: []
  m_SourcePrefab: {fileID: 100100000, guid: f37b0c05965f0dc48b6bcc40ceeb0687, type: 3}
--- !u!4 &1684429929883612744 stripped
Transform:
  m_CorrespondingSourceObject: {fileID: 7704140320757697485, guid: f37b0c05965f0dc48b6bcc40ceeb0687,
    type: 3}
  m_PrefabInstance: {fileID: 9046279013675924869}
  m_PrefabAsset: {fileID: 0}
